{
    "step-types": {
      "script-module-step": [
          {
            "@type-id": "custom.aysar",
            "@supports-parallel-execution": "true",
            "@supports-site-context": "true",
            "@supports-organization-context": "false",
            "description": "shosmo",
            "module": "my_cartridge\cartridge\jobs\myfile.js",
            "function": "execute",
            "transactional": "false",
            "timeout-in-seconds": "900",
            "parameters": {
              "parameter": []
            },
            "status-codes": {
              "status": [
                {
                  "@code": "ERROR",
                  "description": "Used when the step failed with an error."
                },
                {
                  "@code": "FINISHED",
                  "description": "Used when the step finished successfully."
                },
                {
                  "@code": "FINISHED_WITH_WARNINGS",
                  "description": "Used when the step finished with warnings."
                }
              ]
            }
          }
        ]
    }
  }